module gitlab.com/gnsky/go-shop-on-containers

go 1.19

require (
	github.com/friendsofgo/errors v0.9.2
	github.com/gin-gonic/gin v1.8.1
	github.com/jinzhu/copier v0.3.5
	github.com/kat-co/vala v0.0.0-20170210184112-42e1d8b61f12
	github.com/lib/pq v1.10.7
	github.com/shopspring/decimal v1.3.1
	github.com/spf13/viper v1.14.0
	github.com/stretchr/testify v1.8.1
	github.com/volatiletech/null/v8 v8.1.2
	github.com/volatiletech/randomize v0.0.1
	github.com/volatiletech/sqlboiler/v4 v4.13.0
	github.com/volatiletech/strmangle v0.0.4
)

require (
	github.com/davecgh/go-spew v1.1.1 // indirect
	github.com/ericlagergren/decimal v0.0.0-20181231230500-73749d4874d5 // indirect
	github.com/fsnotify/fsnotify v1.6.0 // indirect
	github.com/gin-contrib/sse v0.1.0 // indirect
	github.com/go-playground/locales v0.14.0 // indirect
	github.com/go-playground/universal-translator v0.18.0 // indirect
	github.com/go-playground/validator/v10 v10.10.0 // indirect
	github.com/goccy/go-json v0.9.7 // indirect
	github.com/gofrs/uuid v3.2.0+incompatible // indirect
	github.com/hashicorp/hcl v1.0.0 // indirect
	github.com/json-iterator/go v1.1.12 // indirect
	github.com/leodido/go-urn v1.2.1 // indirect
	github.com/magiconair/properties v1.8.6 // indirect
	github.com/mattn/go-isatty v0.0.14 // indirect
	github.com/mitchellh/mapstructure v1.5.0 // indirect
	github.com/modern-go/concurrent v0.0.0-20180306012644-bacd9c7ef1dd // indirect
	github.com/modern-go/reflect2 v1.0.2 // indirect
	github.com/pelletier/go-toml v1.9.5 // indirect
	github.com/pelletier/go-toml/v2 v2.0.5 // indirect
	github.com/pmezard/go-difflib v1.0.0 // indirect
	github.com/spf13/afero v1.9.2 // indirect
	github.com/spf13/cast v1.5.0 // indirect
	github.com/spf13/jwalterweatherman v1.1.0 // indirect
	github.com/spf13/pflag v1.0.5 // indirect
	github.com/subosito/gotenv v1.4.1 // indirect
	github.com/ugorji/go/codec v1.2.7 // indirect
	github.com/volatiletech/inflect v0.0.1 // indirect
	golang.org/x/crypto v0.0.0-20220525230936-793ad666bf5e // indirect
	golang.org/x/net v0.0.0-20221014081412-f15817d10f9b // indirect
	golang.org/x/sys v0.0.0-20220908164124-27713097b956 // indirect
	golang.org/x/text v0.4.0 // indirect
	golang.org/x/xerrors v0.0.0-20220907171357-04be3eba64a2 // indirect
	google.golang.org/protobuf v1.28.1 // indirect
	gopkg.in/ini.v1 v1.67.0 // indirect
	gopkg.in/yaml.v2 v2.4.0 // indirect
	gopkg.in/yaml.v3 v3.0.1 // indirect
)
